"D_ID","D_W_ID","D_NAME","D_STREET_1","D_STREET_2","D_CITY","D_STATE","D_ZIP","D_TAX","D_YTD","D_NEXT_O_ID"
"1","1","Hikmyu","GyzgvatlrhV","LrvhrxgbcjByzy","ElogpcsklcHpsjrk","JH","726711111","0.1358","30000.00","3001"
"2","1","Gkgxeryngu","GyzgvatlrhLr","JehzqalzatIhxm","JehzqalzatLr","IS","426311111","0.0435","30000.00","3001"
"3","1","Bqhwplrmb","VwgnmoucooQd","GyzgvatlrhByzy","VwgnmoucooDvq","BK","534511111","0.0148","30000.00","3001"
"4","1","Nholhcpbg","ElogpcsklcW","YvveumotpiV","WuwlvxdzbqLr","XT","184711111","0.1462","30000.00","3001"
"1","2","Wgxdow","LrvhrxgbcjLr","QnutwsjgkuU","WuwlvxdzbqV","ZI","364711111","0.1990","30000.00","3001"
"2","2","Fdffbfbb","LrvhrxgbcjIhxm","WuwlvxdzbqIhxm","VwgnmoucooW","WU","826811111","0.0554","30000.00","3001"
"3","2","Rtpohojzw","VwgnmoucooUjxsxjkn","LrvhrxgbcjQd","ElogpcsklcLr","QX","121211111","0.0158","30000.00","3001"
"4","2","Bsmmxuwxpc","ElogpcsklcByzy","SclgudtbvfDvq","GyzgvatlrhQd","RG","665711111","0.0029","30000.00","3001"
"1","3","Frbelljld","SclgudtbvfIhxm","LrvhrxgbcjQd","SclgudtbvfQd","VN","922711111","0.0285","30000.00","3001"
"2","3","Atzibany","JehzqalzatUjxsxjkn","LrvhrxgbcjW","VwgnmoucooU","WI","436211111","0.0773","30000.00","3001"
"3","3","Hyzfudo","WuwlvxdzbqDvq","JehzqalzatW","ElogpcsklcByzy","VS","233311111","0.1620","30000.00","3001"
"4","3","Pbpmporus","JehzqalzatByzy","JehzqalzatW","JehzqalzatDvq","AR","534011111","0.1607","30000.00","3001"
"1","4","Xlrfrujl","ElogpcsklcU","QnutwsjgkuW","WuwlvxdzbqDvq","IK","866111111","0.0348","30000.00","3001"
"2","4","Frcwli","LrvhrxgbcjQd","ElogpcsklcByzy","SclgudtbvfHpsjrk","TQ","473811111","0.0068","30000.00","3001"
"3","4","Iizbvqmg","GyzgvatlrhUjxsxjkn","YvveumotpiDvq","LrvhrxgbcjLr","ZB","465811111","0.1985","30000.00","3001"
"4","4","Npzyitkmhu","ElogpcsklcLr","QnutwsjgkuIhxm","QnutwsjgkuQd","BK","758411111","0.0843","30000.00","3001"
"1","5","Zzfgzb","YvveumotpiQd","GyzgvatlrhLr","QnutwsjgkuDvq","EE","767711111","0.1928","30000.00","3001"
"2","5","Kiflgkbss","JehzqalzatU","QnutwsjgkuW","ElogpcsklcDvq","PR","761211111","0.1373","30000.00","3001"
"3","5","Lbbwvds","JehzqalzatIhxm","LrvhrxgbcjU","JehzqalzatDvq","RV","642511111","0.1478","30000.00","3001"
"4","5","Dkggzoctq","WuwlvxdzbqV","LrvhrxgbcjUjxsxjkn","LrvhrxgbcjV","ES","355811111","0.0931","30000.00","3001"
"1","6","Wedqbrqe","JehzqalzatByzy","YvveumotpiDvq","PtcraakqmxUjxsxjkn","HI","988611111","0.0320","30000.00","3001"
"2","6","Rbghrplp","QnutwsjgkuUjxsxjkn","GyzgvatlrhW","WuwlvxdzbqUjxsxjkn","WD","260511111","0.0891","30000.00","3001"
"3","6","Anweto","GyzgvatlrhW","GyzgvatlrhDvq","JehzqalzatByzy","PD","783811111","0.0569","30000.00","3001"
"4","6","Trrtmgky","QnutwsjgkuHpsjrk","JehzqalzatW","WuwlvxdzbqUjxsxjkn","MO","865111111","0.1576","30000.00","3001"
"1","7","Tvqgzqjgl","QnutwsjgkuU","ElogpcsklcU","LrvhrxgbcjQd","WF","351111111","0.1944","30000.00","3001"
"2","7","Nyllbwlwty","VwgnmoucooByzy","SclgudtbvfW","WuwlvxdzbqV","UF","081611111","0.1671","30000.00","3001"
"3","7","Vsmrkdjyz","VwgnmoucooW","GyzgvatlrhU","WuwlvxdzbqV","QD","591811111","0.1260","30000.00","3001"
"4","7","Vostzfd","ElogpcsklcHpsjrk","WuwlvxdzbqDvq","WuwlvxdzbqIhxm","QJ","271711111","0.0679","30000.00","3001"
"1","8","Gtwqzam","WuwlvxdzbqV","YvveumotpiHpsjrk","GyzgvatlrhQd","SC","534611111","0.1808","30000.00","3001"
"2","8","Nntrukkte","VwgnmoucooByzy","WuwlvxdzbqIhxm","SclgudtbvfW","MY","822111111","0.1302","30000.00","3001"
"3","8","Hivvpnut","GyzgvatlrhDvq","VwgnmoucooLr","PtcraakqmxW","WM","162211111","0.1016","30000.00","3001"
"4","8","Xkhfjxfpj","PtcraakqmxByzy","YvveumotpiByzy","ElogpcsklcW","JU","200711111","0.0169","30000.00","3001"
