"W_ID","W_NAME","W_STREET_1","W_STREET_2","W_CITY","W_STATE","W_ZIP","W_TAX","W_YTD"
"1","Kyxgxhqx","WuwlvxdzbqV","QnutwsjgkuByzy","VwgnmoucooByzy","SQ","934111111","0.1970","300000.00"
"2","Hyfbdh","ElogpcsklcIhxm","JehzqalzatQd","SclgudtbvfV","ZP","426711111","0.1323","300000.00"
"3","Ukhbhxovhq","JehzqalzatDvq","LrvhrxgbcjLr","VwgnmoucooU","EV","218111111","0.0433","300000.00"
"4","Soqzbf","JehzqalzatLr","GyzgvatlrhU","QnutwsjgkuByzy","UH","281611111","0.1778","300000.00"
"5","Jlhnjkc","YvveumotpiUjxsxjkn","QnutwsjgkuLr","JehzqalzatByzy","EN","177111111","0.0728","300000.00"
"6","Llqhifyk","GyzgvatlrhQd","WuwlvxdzbqUjxsxjkn","SclgudtbvfLr","MM","238811111","0.1438","300000.00"
"7","Kuciyjw","VwgnmoucooHpsjrk","SclgudtbvfByzy","VwgnmoucooHpsjrk","NQ","147311111","0.1963","300000.00"
"8","Hhodmefesk","VwgnmoucooQd","QnutwsjgkuW","GyzgvatlrhQd","QF","862311111","0.0349","300000.00"
